^C:\USERS\YOU\DOCUMENTS\PROJECTS\PUZZLE_PLATFORMER\X64\DEBUG\BULLET.OBJ|C:\USERS\YOU\DOCUMENTS\PROJECTS\PUZZLE_PLATFORMER\X64\DEBUG\CHUNK.OBJ|C:\USERS\YOU\DOCUMENTS\PROJECTS\PUZZLE_PLATFORMER\X64\DEBUG\DOOR.OBJ|C:\USERS\YOU\DOCUMENTS\PROJECTS\PUZZLE_PLATFORMER\X64\DEBUG\ENTITY.OBJ|C:\USERS\YOU\DOCUMENTS\PROJECTS\PUZZLE_PLATFORMER\X64\DEBUG\EYE_BAT.OBJ|C:\USERS\YOU\DOCUMENTS\PROJECTS\PUZZLE_PLATFORMER\X64\DEBUG\FLIPPER.OBJ|C:\USERS\YOU\DOCUMENTS\PROJECTS\PUZZLE_PLATFORMER\X64\DEBUG\GAME.OBJ|C:\USERS\YOU\DOCUMENTS\PROJECTS\PUZZLE_PLATFORMER\X64\DEBUG\GLOBALS.OBJ|C:\USERS\YOU\DOCUMENTS\PROJECTS\PUZZLE_PLATFORMER\X64\DEBUG\HOTFILE.OBJ|C:\USERS\YOU\DOCUMENTS\PROJECTS\PUZZLE_PLATFORMER\X64\DEBUG\IMGUI-SFML.OBJ|C:\USERS\YOU\DOCUMENTS\PROJECTS\PUZZLE_PLATFORMER\X64\DEBUG\IMGUI-SFML.OBJ|C:\USERS\YOU\DOCUMENTS\PROJECTS\PUZZLE_PLATFORMER\X64\DEBUG\IMGUI.OBJ|C:\USERS\YOU\DOCUMENTS\PROJECTS\PUZZLE_PLATFORMER\X64\DEBUG\IMGUI.OBJ|C:\USERS\YOU\DOCUMENTS\PROJECTS\PUZZLE_PLATFORMER\X64\DEBUG\IMGUI_DEMO.OBJ|C:\USERS\YOU\DOCUMENTS\PROJECTS\PUZZLE_PLATFORMER\X64\DEBUG\IMGUI_DEMO.OBJ|C:\USERS\YOU\DOCUMENTS\PROJECTS\PUZZLE_PLATFORMER\X64\DEBUG\IMGUI_DRAW.OBJ|C:\USERS\YOU\DOCUMENTS\PROJECTS\PUZZLE_PLATFORMER\X64\DEBUG\IMGUI_DRAW.OBJ|C:\USERS\YOU\DOCUMENTS\PROJECTS\PUZZLE_PLATFORMER\X64\DEBUG\MAIN.OBJ|C:\USERS\YOU\DOCUMENTS\PROJECTS\PUZZLE_PLATFORMER\X64\DEBUG\MATTOCK.OBJ|C:\USERS\YOU\DOCUMENTS\PROJECTS\PUZZLE_PLATFORMER\X64\DEBUG\PLATFORM.OBJ|C:\USERS\YOU\DOCUMENTS\PROJECTS\PUZZLE_PLATFORMER\X64\DEBUG\PLAYER.OBJ|C:\USERS\YOU\DOCUMENTS\PROJECTS\PUZZLE_PLATFORMER\X64\DEBUG\SAND_BLOCK.OBJ|C:\USERS\YOU\DOCUMENTS\PROJECTS\PUZZLE_PLATFORMER\X64\DEBUG\SHOOTER.OBJ|C:\USERS\YOU\DOCUMENTS\PROJECTS\PUZZLE_PLATFORMER\X64\DEBUG\SPAWN.OBJ|C:\USERS\YOU\DOCUMENTS\PROJECTS\PUZZLE_PLATFORMER\X64\DEBUG\SPIKE.OBJ|C:\USERS\YOU\DOCUMENTS\PROJECTS\PUZZLE_PLATFORMER\X64\DEBUG\SUPER_FILE.OBJ|C:\USERS\YOU\DOCUMENTS\PROJECTS\PUZZLE_PLATFORMER\X64\DEBUG\SWITCH.OBJ|C:\USERS\YOU\DOCUMENTS\PROJECTS\PUZZLE_PLATFORMER\X64\DEBUG\TOGGLE_PLATFORM.OBJ|C:\USERS\YOU\DOCUMENTS\PROJECTS\PUZZLE_PLATFORMER\X64\DEBUG\UTILS.OBJ|C:\USERS\YOU\DOCUMENTS\PROJECTS\PUZZLE_PLATFORMER\X64\DEBUG\WALKER.OBJ
C:\USERS\YOU\DOCUMENTS\PROJECTS\PUZZLE_PLATFORMER\X64\DEBUG\PROJECT1.EXE
C:\USERS\YOU\DOCUMENTS\PROJECTS\PUZZLE_PLATFORMER\X64\DEBUG\PROJECT1.ILK
C:\USERS\YOU\DOCUMENTS\PROJECTS\PUZZLE_PLATFORMER\X64\DEBUG\PROJECT1.PDB
